module gitlab.com/nandoalvarado022/go-backend-pikplay

go 1.21.4

require (
	github.com/gorilla/mux v1.8.1
	github.com/joho/godotenv v1.5.1
	github.com/labstack/echo/v4 v4.12.0
	gopkg.in/DataDog/dd-trace-go.v1 v1.66.0
	gorm.io/driver/mysql v1.5.2
	gorm.io/gorm v1.25.5
)

require (
	github.com/DataDog/appsec-internal-go v1.6.0 // indirect
	github.com/DataDog/datadog-agent/pkg/obfuscate v0.48.0 // indirect
	github.com/DataDog/datadog-agent/pkg/remoteconfig/state v0.48.1 // indirect
	github.com/DataDog/datadog-go/v5 v5.3.0 // indirect
	github.com/DataDog/go-libddwaf/v3 v3.2.1 // indirect
	github.com/DataDog/go-tuf v1.0.2-0.5.2 // indirect
	github.com/DataDog/sketches-go v1.4.5 // indirect
	github.com/Microsoft/go-winio v0.6.1 // indirect
	github.com/cespare/xxhash/v2 v2.2.0 // indirect
	github.com/dustin/go-humanize v1.0.1 // indirect
	github.com/ebitengine/purego v0.6.0-alpha.5 // indirect
	github.com/go-sql-driver/mysql v1.7.1 // indirect
	github.com/google/uuid v1.5.0 // indirect
	github.com/jinzhu/inflection v1.0.0 // indirect
	github.com/jinzhu/now v1.1.5 // indirect
	github.com/labstack/gommon v0.4.2 // indirect
	github.com/mattn/go-colorable v0.1.13 // indirect
	github.com/mattn/go-isatty v0.0.20 // indirect
	github.com/outcaste-io/ristretto v0.2.3 // indirect
	github.com/philhofer/fwd v1.1.2 // indirect
	github.com/pkg/errors v0.9.1 // indirect
	github.com/secure-systems-lab/go-securesystemslib v0.7.0 // indirect
	github.com/tinylib/msgp v1.1.8 // indirect
	github.com/valyala/bytebufferpool v1.0.0 // indirect
	github.com/valyala/fasttemplate v1.2.2 // indirect
	go.uber.org/atomic v1.11.0 // indirect
	golang.org/x/crypto v0.22.0 // indirect
	golang.org/x/mod v0.14.0 // indirect
	golang.org/x/net v0.24.0 // indirect
	golang.org/x/sys v0.20.0 // indirect
	golang.org/x/text v0.14.0 // indirect
	golang.org/x/time v0.5.0 // indirect
	golang.org/x/tools v0.16.1 // indirect
	golang.org/x/xerrors v0.0.0-20231012003039-104605ab7028 // indirect
	google.golang.org/protobuf v1.33.0 // indirect
)
